multicycle/waveforms/FP_multi.vcd
$date
	Sat Jul 31 15:27:21 2021
$end
$version
	Icarus Verilog
$end
$timescale
	1s
$end
$scope module testbench $end
$var wire 32 ! WriteData [31:0] $end
$var wire 1 " MemWrite $end
$var wire 32 # DataAdr [31:0] $end
$var reg 1 $ clk $end
$var reg 1 % reset $end
$scope module dut $end
$var wire 1 $ clk $end
$var wire 1 % reset $end
$var wire 32 & WriteData [31:0] $end
$var wire 32 ' ReadData [31:0] $end
$var wire 1 " MemWrite $end
$var wire 32 ( Adr [31:0] $end
$scope module arm $end
$var wire 1 $ clk $end
$var wire 1 % reset $end
$var wire 32 ) WriteData [31:0] $end
$var wire 1 * WE4 $end
$var wire 2 + ResultSrc [1:0] $end
$var wire 1 , ResultControl $end
$var wire 1 - RegWrite $end
$var wire 2 . RegSrc [1:0] $end
$var wire 32 / ReadData [31:0] $end
$var wire 1 0 PCWrite $end
$var wire 1 1 NewSource $end
$var wire 1 " MemWrite $end
$var wire 1 2 IsMul $end
$var wire 32 3 Instr [31:0] $end
$var wire 2 4 ImmSrc [1:0] $end
$var wire 1 5 IRWrite $end
$var wire 2 6 FPControl [1:0] $end
$var wire 1 7 AdrSrc $end
$var wire 32 8 Adr [31:0] $end
$var wire 2 9 ALUSrcB [1:0] $end
$var wire 2 : ALUSrcA [1:0] $end
$var wire 4 ; ALUFlags [3:0] $end
$var wire 4 < ALUControl [3:0] $end
$scope module c $end
$var wire 1 $ clk $end
$var wire 1 % reset $end
$var wire 1 = WE4w $end
$var wire 1 * WE4 $end
$var wire 2 > ResultSrc [1:0] $end
$var wire 1 , ResultControl $end
$var wire 1 - RegWrite $end
$var wire 1 ? RegW $end
$var wire 2 @ RegSrc [1:0] $end
$var wire 1 0 PCWrite $end
$var wire 1 A PCS $end
$var wire 1 B NextPC $end
$var wire 1 1 NewSource $end
$var wire 1 " MemWrite $end
$var wire 1 C MemW $end
$var wire 1 2 IsMul $end
$var wire 32 D Instr [31:0] $end
$var wire 2 E ImmSrc [1:0] $end
$var wire 1 5 IRWrite $end
$var wire 2 F FlagW [1:0] $end
$var wire 2 G FPControl [1:0] $end
$var wire 1 7 AdrSrc $end
$var wire 2 H ALUSrcB [1:0] $end
$var wire 2 I ALUSrcA [1:0] $end
$var wire 4 J ALUFlags [3:0] $end
$var wire 4 K ALUControl [3:0] $end
$scope module cl $end
$var wire 4 L Cond [3:0] $end
$var wire 2 M FlagWrite [1:0] $end
$var wire 1 " MemWrite $end
$var wire 1 0 PCWrite $end
$var wire 1 - RegWrite $end
$var wire 1 * WE4 $end
$var wire 1 $ clk $end
$var wire 1 N impro $end
$var wire 1 % reset $end
$var wire 1 = WE4w $end
$var wire 1 ? RegW $end
$var wire 1 A PCS $end
$var wire 1 B NextPC $end
$var wire 1 C MemW $end
$var wire 4 O Flags [3:0] $end
$var wire 2 P FlagW [1:0] $end
$var wire 1 Q CondEx2 $end
$var wire 1 R CondEx $end
$var wire 4 S ALUFlags [3:0] $end
$scope module cc $end
$var wire 4 T Cond [3:0] $end
$var wire 4 U Flags [3:0] $end
$var wire 1 V ge $end
$var wire 1 W zero $end
$var wire 1 X overflow $end
$var wire 1 Y neg $end
$var wire 1 Z carry $end
$var reg 1 R CondEx $end
$upscope $end
$scope module ff $end
$var wire 1 $ clk $end
$var wire 1 R d $end
$var wire 1 % reset $end
$var reg 1 Q q $end
$upscope $end
$scope module flagreg0 $end
$var wire 1 $ clk $end
$var wire 2 [ d [1:0] $end
$var wire 1 \ en $end
$var wire 1 % reset $end
$var reg 2 ] q [1:0] $end
$upscope $end
$scope module flagreg1 $end
$var wire 1 $ clk $end
$var wire 2 ^ d [1:0] $end
$var wire 1 _ en $end
$var wire 1 % reset $end
$var reg 2 ` q [1:0] $end
$upscope $end
$upscope $end
$scope module dec $end
$var wire 4 a BIT_identifier [3:0] $end
$var wire 5 b FP_identifier [4:0] $end
$var wire 6 c Funct [5:0] $end
$var wire 2 d ImmSrc [1:0] $end
$var wire 4 e MULL_Identifier [3:0] $end
$var wire 4 f OP_identifier [3:0] $end
$var wire 2 g Op [1:0] $end
$var wire 1 A PCS $end
$var wire 4 h Rd [3:0] $end
$var wire 1 $ clk $end
$var wire 1 % reset $end
$var wire 1 = WE4w $end
$var wire 2 i ResultSrc [1:0] $end
$var wire 1 , ResultControl $end
$var wire 1 ? RegW $end
$var wire 2 j RegSrc [1:0] $end
$var wire 1 B NextPC $end
$var wire 1 1 NewSource $end
$var wire 1 C MemW $end
$var wire 1 2 IsMul $end
$var wire 1 5 IRWrite $end
$var wire 1 k Branch $end
$var wire 1 7 AdrSrc $end
$var wire 2 l ALUSrcB [1:0] $end
$var wire 2 m ALUSrcA [1:0] $end
$var wire 1 n ALUOp $end
$var reg 4 o ALUControl [3:0] $end
$var reg 2 p FPControl [1:0] $end
$var reg 2 q FlagW [1:0] $end
$var reg 2 r NewSignals [1:0] $end
$scope module fsm $end
$var wire 5 s FP_identifier [4:0] $end
$var wire 6 t Funct [5:0] $end
$var wire 4 u MULL_Identifier [3:0] $end
$var wire 2 v Op [1:0] $end
$var wire 1 $ clk $end
$var wire 1 % reset $end
$var wire 1 = WE4w $end
$var wire 2 w ResultSrc [1:0] $end
$var wire 1 , ResultControl $end
$var wire 1 ? RegW $end
$var wire 1 B NextPC $end
$var wire 1 C MemW $end
$var wire 1 5 IRWrite $end
$var wire 1 k Branch $end
$var wire 1 7 AdrSrc $end
$var wire 2 x ALUSrcB [1:0] $end
$var wire 2 y ALUSrcA [1:0] $end
$var wire 1 n ALUOp $end
$var reg 15 z controls [14:0] $end
$var reg 4 { nextstate [3:0] $end
$var reg 4 | state [3:0] $end
$upscope $end
$upscope $end
$upscope $end
$scope module dp $end
$var wire 4 } ALUControl [3:0] $end
$var wire 2 ~ ALUSrcA [1:0] $end
$var wire 2 !" ALUSrcB [1:0] $end
$var wire 1 7 AdrSrc $end
$var wire 2 "" FPControl [1:0] $end
$var wire 1 5 IRWrite $end
$var wire 2 #" ImmSrc [1:0] $end
$var wire 1 2 IsMul $end
$var wire 1 1 NewSource $end
$var wire 1 0 PCWrite $end
$var wire 2 $" RegSrc [1:0] $end
$var wire 1 - RegWrite $end
$var wire 1 , ResultControl $end
$var wire 2 %" ResultSrc [1:0] $end
$var wire 1 * WE4 $end
$var wire 1 $ clk $end
$var wire 1 % reset $end
$var wire 4 &" newRA3 [3:0] $end
$var wire 4 '" newRA2 [3:0] $end
$var wire 4 (" newRA1 [3:0] $end
$var wire 32 )" newALUResult [31:0] $end
$var wire 32 *" WriteData [31:0] $end
$var wire 32 +" SrcB [31:0] $end
$var wire 32 ," SrcA [31:0] $end
$var wire 32 -" Result2 [31:0] $end
$var wire 32 ." Result [31:0] $end
$var wire 32 /" ReadData [31:0] $end
$var wire 32 0" RD2 [31:0] $end
$var wire 32 1" RD1 [31:0] $end
$var wire 4 2" RA2 [3:0] $end
$var wire 4 3" RA1 [3:0] $end
$var wire 32 4" PC [31:0] $end
$var wire 32 5" Instr [31:0] $end
$var wire 32 6" FPResult [31:0] $end
$var wire 32 7" ExtImm [31:0] $end
$var wire 32 8" Data [31:0] $end
$var wire 32 9" Adr [31:0] $end
$var wire 32 :" ALUResult2 [31:0] $end
$var wire 32 ;" ALUResult [31:0] $end
$var wire 32 <" ALUOut [31:0] $end
$var wire 4 =" ALUFlags [3:0] $end
$var wire 32 >" A [31:0] $end
$scope module Adrmux $end
$var wire 1 7 s $end
$var wire 32 ?" y [31:0] $end
$var wire 32 @" d1 [31:0] $end
$var wire 32 A" d0 [31:0] $end
$upscope $end
$scope module Areg $end
$var wire 1 $ clk $end
$var wire 1 % reset $end
$var wire 32 B" d [31:0] $end
$var reg 32 C" q [31:0] $end
$upscope $end
$scope module DataRegister $end
$var wire 1 $ clk $end
$var wire 1 % reset $end
$var wire 32 D" d [31:0] $end
$var reg 32 E" q [31:0] $end
$upscope $end
$scope module FPU $end
$var wire 2 F" ALUControl [1:0] $end
$var wire 16 G" tempResult16 [15:0] $end
$var wire 32 H" b [31:0] $end
$var wire 32 I" a [31:0] $end
$var wire 32 J" Result32 [31:0] $end
$var wire 32 K" Result16 [31:0] $end
$var wire 32 L" Result [31:0] $end
$scope module decisivo $end
$var wire 32 M" d0 [31:0] $end
$var wire 1 N" s $end
$var wire 32 O" y [31:0] $end
$var wire 32 P" d1 [31:0] $end
$upscope $end
$scope module fp16 $end
$var wire 1 Q" ALUControl $end
$var wire 16 R" a [15:0] $end
$var wire 16 S" b [15:0] $end
$var wire 16 T" exponente [15:0] $end
$var wire 16 U" inicial [15:0] $end
$var wire 16 V" matissa [15:0] $end
$var reg 16 W" Result [15:0] $end
$var reg 16 X" exponente_a [15:0] $end
$var reg 16 Y" exponente_b [15:0] $end
$var reg 16 Z" mantissa_a [15:0] $end
$var reg 16 [" mantissa_b [15:0] $end
$var reg 16 \" temp1 [15:0] $end
$var reg 16 ]" temp2 [15:0] $end
$var reg 16 ^" temp3 [15:0] $end
$var reg 1000 _" temp4 [999:0] $end
$upscope $end
$scope module fp32 $end
$var wire 1 `" ALUControl $end
$var wire 32 a" exponente [31:0] $end
$var wire 32 b" inicial [31:0] $end
$var wire 32 c" matissa [31:0] $end
$var wire 32 d" b [31:0] $end
$var wire 32 e" a [31:0] $end
$var reg 32 f" Result [31:0] $end
$var reg 32 g" exponente_a [31:0] $end
$var reg 32 h" exponente_b [31:0] $end
$var reg 32 i" mantissa_a [31:0] $end
$var reg 32 j" mantissa_b [31:0] $end
$var reg 32 k" temp1 [31:0] $end
$var reg 32 l" temp2 [31:0] $end
$var reg 32 m" temp3 [31:0] $end
$var reg 1000 n" temp4 [999:0] $end
$upscope $end
$upscope $end
$scope module FPmux $end
$var wire 32 o" d1 [31:0] $end
$var wire 1 , s $end
$var wire 32 p" y [31:0] $end
$var wire 32 q" d0 [31:0] $end
$upscope $end
$scope module IRegister $end
$var wire 1 $ clk $end
$var wire 1 5 en $end
$var wire 1 % reset $end
$var wire 32 r" d [31:0] $end
$var reg 32 s" q [31:0] $end
$upscope $end
$scope module Result2ToReg $end
$var wire 1 $ clk $end
$var wire 1 % reset $end
$var wire 32 t" d [31:0] $end
$var reg 32 u" q [31:0] $end
$upscope $end
$scope module WDreg $end
$var wire 1 $ clk $end
$var wire 1 % reset $end
$var wire 32 v" d [31:0] $end
$var reg 32 w" q [31:0] $end
$upscope $end
$scope module alu $end
$var wire 4 x" ALUControl [3:0] $end
$var wire 1 y" zero $end
$var wire 33 z" sum [32:0] $end
$var wire 1 {" overflow $end
$var wire 1 |" neg $end
$var wire 1 }" carry $end
$var wire 32 ~" b [31:0] $end
$var wire 32 !# a [31:0] $end
$var wire 4 "# ALUFlags [3:0] $end
$var reg 32 ## Result [31:0] $end
$var reg 32 $# Result2 [31:0] $end
$var reg 64 %# aux [63:0] $end
$var reg 32 &# tempA [31:0] $end
$var reg 64 '# tempAUX [63:0] $end
$var reg 32 (# tempB [31:0] $end
$var reg 1 }" tempCARRY $end
$var reg 1 {" tempOVERFLOW $end
$upscope $end
$scope module aluoutreg $end
$var wire 1 $ clk $end
$var wire 32 )# d [31:0] $end
$var wire 1 % reset $end
$var reg 32 *# q [31:0] $end
$upscope $end
$scope module ext $end
$var wire 2 +# ImmSrc [1:0] $end
$var wire 24 ,# Instr [23:0] $end
$var reg 32 -# ExtImm [31:0] $end
$upscope $end
$scope module muxResult $end
$var wire 32 .# d0 [31:0] $end
$var wire 32 /# d1 [31:0] $end
$var wire 32 0# d2 [31:0] $end
$var wire 2 1# s [1:0] $end
$var wire 32 2# y [31:0] $end
$upscope $end
$scope module muxSrcA $end
$var wire 32 3# d0 [31:0] $end
$var wire 32 4# d2 [31:0] $end
$var wire 2 5# s [1:0] $end
$var wire 32 6# y [31:0] $end
$var wire 32 7# d1 [31:0] $end
$upscope $end
$scope module muxSrcB $end
$var wire 32 8# d0 [31:0] $end
$var wire 32 9# d1 [31:0] $end
$var wire 32 :# d2 [31:0] $end
$var wire 2 ;# s [1:0] $end
$var wire 32 <# y [31:0] $end
$upscope $end
$scope module pcreg $end
$var wire 1 $ clk $end
$var wire 32 =# d [31:0] $end
$var wire 1 0 en $end
$var wire 1 % reset $end
$var reg 32 ># q [31:0] $end
$upscope $end
$scope module ra1mux $end
$var wire 4 ?# d0 [3:0] $end
$var wire 4 @# d1 [3:0] $end
$var wire 1 A# s $end
$var wire 4 B# y [3:0] $end
$upscope $end
$scope module ra1mux2 $end
$var wire 4 C# d0 [3:0] $end
$var wire 4 D# d1 [3:0] $end
$var wire 1 1 s $end
$var wire 4 E# y [3:0] $end
$upscope $end
$scope module ra2mux $end
$var wire 4 F# d0 [3:0] $end
$var wire 4 G# d1 [3:0] $end
$var wire 1 H# s $end
$var wire 4 I# y [3:0] $end
$upscope $end
$scope module ra2mux2 $end
$var wire 4 J# d0 [3:0] $end
$var wire 4 K# d1 [3:0] $end
$var wire 1 1 s $end
$var wire 4 L# y [3:0] $end
$upscope $end
$scope module ra3mux $end
$var wire 4 M# d0 [3:0] $end
$var wire 4 N# d1 [3:0] $end
$var wire 1 2 s $end
$var wire 4 O# y [3:0] $end
$upscope $end
$scope module rf $end
$var wire 4 P# WA4 [3:0] $end
$var wire 32 Q# WD4 [31:0] $end
$var wire 1 * WE4 $end
$var wire 1 $ clk $end
$var wire 32 R# r15 [31:0] $end
$var wire 4 S# ra1 [3:0] $end
$var wire 4 T# ra2 [3:0] $end
$var wire 4 U# wa3 [3:0] $end
$var wire 32 V# wd3 [31:0] $end
$var wire 1 - we3 $end
$var wire 32 W# rd2 [31:0] $end
$var wire 32 X# rd1 [31:0] $end
$upscope $end
$upscope $end
$upscope $end
$scope module mem $end
$var wire 32 Y# a [31:0] $end
$var wire 1 $ clk $end
$var wire 32 Z# rd [31:0] $end
$var wire 32 [# wd [31:0] $end
$var wire 1 " we $end
$upscope $end
$upscope $end
$upscope $end
$enddefinitions $end
#0
$dumpvars
b0 [#
b11100001111100000000010100000110 Z#
b0 Y#
bx X#
bx W#
b100 V#
b0 U#
b0 T#
b0 S#
b100 R#
b0 Q#
b0 P#
b0 O#
b0 N#
b0 M#
b0 L#
b0 K#
b0 J#
b0 I#
0H#
b0 G#
b0 F#
b0 E#
b0 D#
b0 C#
b0 B#
0A#
b1111 @#
b0 ?#
b0 >#
b100 =#
b100 <#
b10 ;#
b100 :#
b0 9#
b0 8#
b0 7#
b0 6#
b1 5#
b0 4#
b0 3#
b100 2#
b10 1#
b100 0#
b0 /#
b0 .#
b0 -#
b0 ,#
b0 +#
b0 *#
b100 )#
bx (#
bx '#
bx &#
bx %#
bx $#
b100 ##
b0 "#
b0 !#
b100 ~"
0}"
0|"
0{"
b100 z"
0y"
b0 x"
b0 w"
bx v"
b0 u"
bx t"
b0 s"
b11100001111100000000010100000110 r"
b100 q"
b100 p"
b0x000000000000x0000000010 o"
bx n"
b10 m"
b100000000000000000000010 l"
b100000000000000000000000 k"
b100000000000000000000100 j"
b100000000000000000000000 i"
b0 h"
b0 g"
b100000000000000000000010 f"
b0 e"
b100 d"
b11111111111111111111111 c"
b100000000000000000000000 b"
b1111111100000000000000000000000 a"
x`"
bx _"
b10 ^"
b10000000010 ]"
b10000000000 \"
b10000000100 ["
b10000000000 Z"
b0 Y"
b0 X"
b10000000010 W"
b1111111111 V"
b10000000000 U"
b111110000000000 T"
b100 S"
b0 R"
xQ"
b100000000000000000000010 P"
b0x000000000000x0000000010 O"
xN"
b10000000010 M"
b0x000000000000x0000000010 L"
b10000000010 K"
b100000000000000000000010 J"
b0 I"
b100 H"
b10000000010 G"
bx F"
b0 E"
b11100001111100000000010100000110 D"
b0 C"
bx B"
b0 A"
b100 @"
b0 ?"
b0 >"
b0 ="
b0 <"
b100 ;"
bx :"
b0 9"
b0 8"
b0 7"
b0x000000000000x0000000010 6"
b0 5"
b0 4"
b0 3"
b0 2"
bx 1"
bx 0"
b11100001111100000000010100000110 /"
b100 ."
b0 -"
b0 ,"
b100 +"
b0 *"
b100 )"
b0 ("
b0 '"
b0 &"
b10 %"
b0 $"
b0 #"
bx ""
b10 !"
b1 ~
b0 }
b0 |
b1 {
b100010100110000 z
b1 y
b10 x
b10 w
b0 v
b0 u
b0 t
b0 s
b0 r
b0 q
bx p
b0 o
0n
b1 m
b10 l
0k
b0 j
b10 i
b0 h
b0 g
b0 f
b0 e
b0 d
b0 c
b0 b
b0 a
b0 `
0_
b0 ^
b0 ]
0\
b0 [
0Z
0Y
0X
0W
1V
b0 U
b0 T
b0 S
0R
0Q
b0 P
b0 O
0N
b0 M
b0 L
b0 K
b0 J
b1 I
b10 H
bx G
b0 F
b0 E
b0 D
0C
1B
0A
b0 @
0?
b10 >
0=
b0 <
b0 ;
b1 :
b10 9
b0 8
07
bx 6
15
b0 4
b0 3
02
01
10
b11100001111100000000010100000110 /
b0 .
0-
0,
b10 +
0*
b0 )
b0 (
b11100001111100000000010100000110 '
b0 &
1%
1$
b0 #
0"
b0 !
$end
#1
0$
#2
b1000 ."
b1000 @"
b1000 2#
b1000 =#
b1000 R#
b1000 V#
b1000010011100000000000000000000 1"
b1000010011100000000000000000000 B"
b1000010011100000000000000000000 X#
b10000000100 K"
b10000000100 M"
b10000000100 G"
b10000000100 W"
b10 ^"
b10000000100 ]"
b10000000000 \"
b10000000100 ["
b10000000100 Z"
b0x000000000000x0000000100 6"
b0x000000000000x0000000100 L"
b0x000000000000x0000000100 O"
b0x000000000000x0000000100 o"
b1000 )"
b1000 p"
b1000 )#
b1000 0#
b1000001001010000000000000000000 0"
b1000001001010000000000000000000 v"
b1000001001010000000000000000000 W#
b101 ("
b101 E#
b101 S#
b100 R"
b100000000000000000000100 J"
b100000000000000000000100 P"
b100000000000000000000100 f"
b10 m"
b100000000000000000000100 l"
b100000000000000000000000 k"
b100000000000000000000100 j"
b100000000000000000000100 i"
b1000 ;"
b1000 q"
b1000 ##
b110 '"
b110 L#
b110 T#
11
00
b1000 z"
b100 ,"
b100 I"
b100 e"
b100 !#
b100 6#
b1110001111100000001010111110111 '
b1110001111100000001010111110111 /
b1110001111100000001010111110111 /"
b1110001111100000001010111110111 D"
b1110001111100000001010111110111 r"
b1110001111100000001010111110111 Z#
b110 7"
b110 -#
b110 9#
b110 2"
b110 I#
b110 J#
1R
b10 r
0B
05
b100 #
b100 (
b100 8
b100 9"
b100 ?"
b100 Y#
b111100000000010100000110 ,#
b110 K#
b101 D#
b110 F#
b1110 L
b1110 T
b11111 b
b11111 s
b11111 c
b11111 t
b100110000 z
b110 {
b100 <"
b100 *#
b100 .#
b100 4#
bx -"
bx u"
bx Q#
bx !
bx &
bx )
bx *"
bx w"
bx 8#
bx [#
bx >"
bx C"
bx 3#
b100 4"
b100 A"
b100 7#
b100 >#
b11100001111100000000010100000110 8"
b11100001111100000000010100000110 E"
b11100001111100000000010100000110 /#
b11100001111100000000010100000110 3
b11100001111100000000010100000110 D
b11100001111100000000010100000110 5"
b11100001111100000000010100000110 s"
b1 |
1$
0%
#3
0$
#4
b10 ^
b1 [
1|"
b0 R"
b10000100 g"
b1001 ;
b1001 J
b1001 S
b1001 ="
b1001 "#
1{"
b10000011100110000000000000000000 ;"
b10000011100110000000000000000000 q"
b10000011100110000000000000000000 ##
b10000000000 K"
b10000000000 M"
b10000000000 G"
b10000000000 W"
b1000010011100000000000000000000 ,"
b1000010011100000000000000000000 I"
b1000010011100000000000000000000 e"
b1000010011100000000000000000000 !#
b1000010011100000000000000000000 6#
b10000011100110000000000000000000 z"
b0 S"
b1000010100011010000000000000000 J"
b1000010100011010000000000000000 P"
b1000010100011010000000000000000 f"
b10 m"
b1000010100011010000000000000000 l"
b1000010100000000000000000000000 k"
b1010100000000000000000 j"
b111100000000000000000000 i"
b10000010 h"
b10 ^"
b10000000000 ]"
b10000000000 \"
b10000000000 ["
b10000000000 Z"
b1000010100011010000000000000000 6"
b1000010100011010000000000000000 L"
b1000010100011010000000000000000 O"
b1000010100011010000000000000000 o"
b1000001001010000000000000000000 +"
b1000001001010000000000000000000 H"
b1000001001010000000000000000000 d"
b1000001001010000000000000000000 ~"
b1000001001010000000000000000000 <#
0`"
0Q"
1N"
b1000010100011010000000000000000 ."
b1000010100011010000000000000000 @"
b1000010100011010000000000000000 2#
b1000010100011010000000000000000 =#
b1000010100011010000000000000000 R#
b1000010100011010000000000000000 V#
b1 6
b1 G
b1 p
b1 ""
b1 F"
b1000010100011010000000000000000 )"
b1000010100011010000000000000000 p"
b1000010100011010000000000000000 )#
b1000010100011010000000000000000 0#
b0 :
b0 I
b0 m
b0 y
b0 ~
b0 5#
b0 9
b0 H
b0 l
b0 x
b0 !"
b0 ;#
1n
1,
b100000101 z
b1000 {
b110 |
1Q
b1110001111100000001010111110111 8"
b1110001111100000001010111110111 E"
b1110001111100000001010111110111 /#
b1000010011100000000000000000000 >"
b1000010011100000000000000000000 C"
b1000010011100000000000000000000 3#
b1000001001010000000000000000000 !
b1000001001010000000000000000000 &
b1000001001010000000000000000000 )
b1000001001010000000000000000000 *"
b1000001001010000000000000000000 w"
b1000001001010000000000000000000 8#
b1000001001010000000000000000000 [#
b1000 <"
b1000 *#
b1000 .#
b1000 4#
1$
#5
0$
#6
1-
b10000011100110000000000000000000 )"
b10000011100110000000000000000000 p"
b10000011100110000000000000000000 )#
b10000011100110000000000000000000 0#
1?
b0 +
b0 >
b0 i
b0 w
b0 %"
b0 1#
0,
b100000000100 z
b0 {
b1000010100011010000000000000000 <"
b1000010100011010000000000000000 *#
b1000010100011010000000000000000 .#
b1000010100011010000000000000000 4#
b1000 |
1$
#7
0$
#8
b0 ^
b0 [
0|"
b1000 )"
b1000 p"
b1000 )#
b1000 0#
b100 R"
b0 ;
b0 J
b0 S
b0 ="
b0 "#
0{"
b1000 ;"
b1000 q"
b1000 ##
b10000000100 K"
b10000000100 M"
b10000000100 G"
b10000000100 W"
b10 ^"
b10000000100 ]"
b10000000000 \"
b10000000100 ["
b10000000100 Z"
b100000000000000000000100 6"
b100000000000000000000100 L"
b100000000000000000000100 O"
b100000000000000000000100 o"
b100 ,"
b100 I"
b100 e"
b100 !#
b100 6#
b1000 z"
b100 S"
b100000000000000000000100 J"
b100000000000000000000100 P"
b100000000000000000000100 f"
b10 m"
b100000000000000000000100 l"
b100000000000000000000000 k"
b100000000000000000000100 j"
b100000000000000000000100 i"
b0 h"
b0 g"
b100 +"
b100 H"
b100 d"
b100 ~"
b100 <#
10
0-
1B
0?
15
b10 +
b10 >
b10 i
b10 w
b10 %"
b10 1#
b1 :
b1 I
b1 m
b1 y
b1 ~
b1 5#
b10 9
b10 H
b10 l
b10 x
b10 !"
b10 ;#
0n
b1000 ."
b1000 @"
b1000 2#
b1000 =#
b1000 R#
b1000 V#
b100010100110000 z
b1 {
b0 |
b10000011100110000000000000000000 <"
b10000011100110000000000000000000 *#
b10000011100110000000000000000000 .#
b10000011100110000000000000000000 4#
1$
#9
0$
#10
b1100 ."
b1100 @"
b1100 2#
b1100 =#
b1100 R#
b1100 V#
b10000000110 K"
b10000000110 M"
b10000000110 G"
b10000000110 W"
b10 ^"
b10000000110 ]"
b10000000000 \"
b10000000100 ["
b10000001000 Z"
b100000000000000000000110 6"
b100000000000000000000110 L"
b100000000000000000000110 O"
b100000000000000000000110 o"
b1100 )"
b1100 p"
b1100 )#
b1100 0#
b1000 R"
b100000000000000000000110 J"
b100000000000000000000110 P"
b100000000000000000000110 f"
b10 m"
b100000000000000000000110 l"
b100000000000000000000000 k"
b100000000000000000000100 j"
b100000000000000000001000 i"
b1100 ;"
b1100 q"
b1100 ##
b1000000101000000000000000000000 0"
b1000000101000000000000000000000 v"
b1000000101000000000000000000000 W#
00
b1100 z"
b1000 ,"
b1000 I"
b1000 e"
b1000 !#
b1000 6#
b11100001111111110010010100000110 '
b11100001111111110010010100000110 /
b11100001111111110010010100000110 /"
b11100001111111110010010100000110 D"
b11100001111111110010010100000110 r"
b11100001111111110010010100000110 Z#
b11110111 7"
b11110111 -#
b11110111 9#
b1 &"
b1 O#
b1 U#
b111 '"
b111 L#
b111 T#
b111 2"
b111 I#
b111 J#
0B
05
b1000 #
b1000 (
b1000 8
b1000 9"
b1000 ?"
b1000 Y#
b111100000001010111110111 ,#
b1 M#
b111 K#
b1 G#
b111 F#
b111 L
b111 T
b1111 f
b1111 e
b1111 u
b1 h
b100110000 z
b110 {
b1000 <"
b1000 *#
b1000 .#
b1000 4#
b1000 4"
b1000 A"
b1000 7#
b1000 >#
b1110001111100000001010111110111 3
b1110001111100000001010111110111 D
b1110001111100000001010111110111 5"
b1110001111100000001010111110111 s"
b1 |
1$
#11
0$
#12
b10 ^
b1 [
1|"
b0 R"
b10000100 g"
b1001 ;
b1001 J
b1001 S
b1001 ="
b1001 "#
1{"
b10000011000100000000000000000000 ;"
b10000011000100000000000000000000 q"
b10000011000100000000000000000000 ##
b1000011100101100000000000000000 6"
b1000011100101100000000000000000 L"
b1000011100101100000000000000000 O"
b1000011100101100000000000000000 o"
b1000010011100000000000000000000 ,"
b1000010011100000000000000000000 I"
b1000010011100000000000000000000 e"
b1000010011100000000000000000000 !#
b1000010011100000000000000000000 6#
b10000011000100000000000000000000 z"
b0 S"
b1000011100101100000000000000000 J"
b1000011100101100000000000000000 P"
b1000011100101100000000000000000 f"
b1000011100101100000000000000000 l"
b100101100000000000000000 n"
b1000011100000000000000000000000 k"
b101000000000000000000000 j"
b111100000000000000000000 i"
b10000001 h"
b100100000000000 K"
b100100000000000 M"
b100100000000000 G"
b100100000000000 W"
b1100100000000000 ]"
b100000000000 _"
b1100100000000000 \"
b10000000000 ["
b10000000000 Z"
b1000000101000000000000000000000 +"
b1000000101000000000000000000000 H"
b1000000101000000000000000000000 d"
b1000000101000000000000000000000 ~"
b1000000101000000000000000000000 <#
1`"
1Q"
b1000011100101100000000000000000 ."
b1000011100101100000000000000000 @"
b1000011100101100000000000000000 2#
b1000011100101100000000000000000 =#
b1000011100101100000000000000000 R#
b1000011100101100000000000000000 V#
b11 6
b11 G
b11 p
b11 ""
b11 F"
b1000011100101100000000000000000 )"
b1000011100101100000000000000000 p"
b1000011100101100000000000000000 )#
b1000011100101100000000000000000 0#
b0 :
b0 I
b0 m
b0 y
b0 ~
b0 5#
b0 9
b0 H
b0 l
b0 x
b0 !"
b0 ;#
1n
1,
b100000101 z
b1000 {
b110 |
b11100001111111110010010100000110 8"
b11100001111111110010010100000110 E"
b11100001111111110010010100000110 /#
b1000000101000000000000000000000 !
b1000000101000000000000000000000 &
b1000000101000000000000000000000 )
b1000000101000000000000000000000 *"
b1000000101000000000000000000000 w"
b1000000101000000000000000000000 8#
b1000000101000000000000000000000 [#
b1100 <"
b1100 *#
b1100 .#
b1100 4#
1$
#13
0$
#14
1-
b10000011000100000000000000000000 )"
b10000011000100000000000000000000 p"
b10000011000100000000000000000000 )#
b10000011000100000000000000000000 0#
1?
b0 +
b0 >
b0 i
b0 w
b0 %"
b0 1#
0,
b100000000100 z
b0 {
b1000011100101100000000000000000 <"
b1000011100101100000000000000000 *#
b1000011100101100000000000000000 .#
b1000011100101100000000000000000 4#
b1000 |
1$
#15
0$
#16
b0 ^
b0 [
0|"
b1100 )"
b1100 p"
b1100 )#
b1100 0#
b1000 R"
b0 ;
b0 J
b0 S
b0 ="
b0 "#
0{"
b1100 ;"
b1100 q"
b1100 ##
b100100000001100 K"
b100100000001100 M"
b100100000001100 G"
b100100000001100 W"
b1100100000001100 ]"
b10000001100 _"
b1100100000000000 \"
b10000000100 ["
b10000001000 Z"
b1000001000000000000000000001100 6"
b1000001000000000000000000001100 L"
b1000001000000000000000000001100 O"
b1000001000000000000000000001100 o"
b1000 ,"
b1000 I"
b1000 e"
b1000 !#
b1000 6#
b1100 z"
b100 S"
b1000001000000000000000000001100 J"
b1000001000000000000000000001100 P"
b1000001000000000000000000001100 f"
b11000001000000000000000000001100 l"
b100000000000000000001100 n"
b11000001000000000000000000000000 k"
b100000000000000000000100 j"
b100000000000000000001000 i"
b0 h"
b0 g"
b100 +"
b100 H"
b100 d"
b100 ~"
b100 <#
10
0-
1B
0?
15
b10 +
b10 >
b10 i
b10 w
b10 %"
b10 1#
b1 :
b1 I
b1 m
b1 y
b1 ~
b1 5#
b10 9
b10 H
b10 l
b10 x
b10 !"
b10 ;#
0n
b1100 ."
b1100 @"
b1100 2#
b1100 =#
b1100 R#
b1100 V#
b100010100110000 z
b1 {
b0 |
b10000011000100000000000000000000 <"
b10000011000100000000000000000000 *#
b10000011000100000000000000000000 .#
b10000011000100000000000000000000 4#
1$
#17
0$
