singlecycle/waveforms/MULTIPLY_single.vcd
$date
	Sat Jul 31 15:44:30 2021
$end
$version
	Icarus Verilog
$end
$timescale
	1ns
$end
$scope module testbench $end
$var wire 32 ! WriteData [31:0] $end
$var wire 1 " MemWrite $end
$var wire 32 # DataAdr [31:0] $end
$var reg 1 $ clk $end
$var reg 1 % reset $end
$scope module dut $end
$var wire 1 $ clk $end
$var wire 1 % reset $end
$var wire 32 & WriteData [31:0] $end
$var wire 32 ' ReadData [31:0] $end
$var wire 32 ( PC [31:0] $end
$var wire 1 " MemWrite $end
$var wire 32 ) Instr [31:0] $end
$var wire 32 * DataAdr [31:0] $end
$scope module arm $end
$var wire 1 $ clk $end
$var wire 1 % reset $end
$var wire 32 + newALUResult [31:0] $end
$var wire 32 , WriteData [31:0] $end
$var wire 1 - WE4 $end
$var wire 1 . ResultControl $end
$var wire 1 / RegWrite $end
$var wire 2 0 RegSrc [1:0] $end
$var wire 32 1 ReadData [31:0] $end
$var wire 1 2 PCSrc $end
$var wire 32 3 PC [31:0] $end
$var wire 1 4 NewSource $end
$var wire 1 5 MemtoReg $end
$var wire 1 " MemWrite $end
$var wire 1 6 IsMul $end
$var wire 32 7 Instr [31:0] $end
$var wire 2 8 ImmSrc [1:0] $end
$var wire 2 9 FPControl [1:0] $end
$var wire 1 : ALUSrc $end
$var wire 4 ; ALUFlags [3:0] $end
$var wire 4 < ALUControl [3:0] $end
$scope module c $end
$var wire 1 $ clk $end
$var wire 1 % reset $end
$var wire 1 = WE4w $end
$var wire 1 - WE4 $end
$var wire 1 . ResultControl $end
$var wire 1 / RegWrite $end
$var wire 1 > RegW $end
$var wire 2 ? RegSrc [1:0] $end
$var wire 1 2 PCSrc $end
$var wire 1 @ PCS $end
$var wire 1 4 NewSource $end
$var wire 1 5 MemtoReg $end
$var wire 1 " MemWrite $end
$var wire 1 A MemW $end
$var wire 1 6 IsMul $end
$var wire 32 B Instr [31:0] $end
$var wire 2 C ImmSrc [1:0] $end
$var wire 2 D FlagW [1:0] $end
$var wire 2 E FPControl [1:0] $end
$var wire 1 : ALUSrc $end
$var wire 4 F ALUFlags [3:0] $end
$var wire 4 G ALUControl [3:0] $end
$scope module cl $end
$var wire 4 H Cond [3:0] $end
$var wire 2 I FlagWrite [1:0] $end
$var wire 1 " MemWrite $end
$var wire 1 2 PCSrc $end
$var wire 1 / RegWrite $end
$var wire 1 - WE4 $end
$var wire 1 $ clk $end
$var wire 1 % reset $end
$var wire 1 = WE4w $end
$var wire 1 > RegW $end
$var wire 1 @ PCS $end
$var wire 1 A MemW $end
$var wire 4 J Flags [3:0] $end
$var wire 2 K FlagW [1:0] $end
$var wire 1 L CondEx $end
$var wire 4 M ALUFlags [3:0] $end
$scope module cc $end
$var wire 4 N Cond [3:0] $end
$var wire 4 O Flags [3:0] $end
$var wire 1 P ge $end
$var wire 1 Q zero $end
$var wire 1 R overflow $end
$var wire 1 S neg $end
$var wire 1 T carry $end
$var reg 1 L CondEx $end
$upscope $end
$scope module flagreg0 $end
$var wire 1 $ clk $end
$var wire 2 U d [1:0] $end
$var wire 1 V en $end
$var wire 1 % reset $end
$var reg 2 W q [1:0] $end
$upscope $end
$scope module flagreg1 $end
$var wire 1 $ clk $end
$var wire 2 X d [1:0] $end
$var wire 1 Y en $end
$var wire 1 % reset $end
$var reg 2 Z q [1:0] $end
$upscope $end
$upscope $end
$scope module dec $end
$var wire 4 [ BIT_identifier [3:0] $end
$var wire 5 \ FP_identifier [4:0] $end
$var wire 6 ] Funct [5:0] $end
$var wire 4 ^ MULL_Identifier [3:0] $end
$var wire 4 _ OP_identifier [3:0] $end
$var wire 2 ` Op [1:0] $end
$var wire 1 @ PCS $end
$var wire 4 a Rd [3:0] $end
$var wire 1 = WE4w $end
$var wire 1 . ResultControl $end
$var wire 1 > RegW $end
$var wire 2 b RegSrc [1:0] $end
$var wire 1 4 NewSource $end
$var wire 1 5 MemtoReg $end
$var wire 1 A MemW $end
$var wire 1 6 IsMul $end
$var wire 2 c ImmSrc [1:0] $end
$var wire 1 d Branch $end
$var wire 1 : ALUSrc $end
$var wire 1 e ALUOp $end
$var reg 4 f ALUControl [3:0] $end
$var reg 2 g FPControl [1:0] $end
$var reg 2 h FlagW [1:0] $end
$var reg 14 i controls [13:0] $end
$upscope $end
$upscope $end
$scope module dp $end
$var wire 4 j ALUControl [3:0] $end
$var wire 1 : ALUSrc $end
$var wire 2 k FPControl [1:0] $end
$var wire 2 l ImmSrc [1:0] $end
$var wire 1 6 IsMul $end
$var wire 1 5 MemtoReg $end
$var wire 1 4 NewSource $end
$var wire 1 2 PCSrc $end
$var wire 2 m RegSrc [1:0] $end
$var wire 1 / RegWrite $end
$var wire 32 n Result2 [31:0] $end
$var wire 1 . ResultControl $end
$var wire 1 - WE4 $end
$var wire 1 $ clk $end
$var wire 1 % reset $end
$var wire 4 o newRA3 [3:0] $end
$var wire 4 p newRA2 [3:0] $end
$var wire 4 q newRA1 [3:0] $end
$var wire 32 r newALUResult [31:0] $end
$var wire 32 s WriteData [31:0] $end
$var wire 32 t SrcB [31:0] $end
$var wire 32 u SrcA [31:0] $end
$var wire 32 v Result [31:0] $end
$var wire 32 w ReadData [31:0] $end
$var wire 4 x RA2 [3:0] $end
$var wire 4 y RA1 [3:0] $end
$var wire 32 z PCPlus8 [31:0] $end
$var wire 32 { PCPlus4 [31:0] $end
$var wire 32 | PCNext [31:0] $end
$var wire 32 } PC [31:0] $end
$var wire 32 ~ Instr [31:0] $end
$var wire 32 !" FPResult [31:0] $end
$var wire 32 "" ExtImm [31:0] $end
$var wire 32 #" ALUResult2 [31:0] $end
$var wire 32 $" ALUResult [31:0] $end
$var wire 4 %" ALUFlags [3:0] $end
$scope module FPU $end
$var wire 2 &" ALUControl [1:0] $end
$var wire 16 '" tempResult16 [15:0] $end
$var wire 32 (" b [31:0] $end
$var wire 32 )" a [31:0] $end
$var wire 32 *" Result32 [31:0] $end
$var wire 32 +" Result16 [31:0] $end
$var wire 32 ," Result [31:0] $end
$scope module decisivo $end
$var wire 32 -" d0 [31:0] $end
$var wire 1 ." s $end
$var wire 32 /" y [31:0] $end
$var wire 32 0" d1 [31:0] $end
$upscope $end
$scope module fp16 $end
$var wire 1 1" ALUControl $end
$var wire 16 2" a [15:0] $end
$var wire 16 3" b [15:0] $end
$var wire 16 4" exponente [15:0] $end
$var wire 16 5" inicial [15:0] $end
$var wire 16 6" matissa [15:0] $end
$var reg 16 7" Result [15:0] $end
$var reg 16 8" exponente_a [15:0] $end
$var reg 16 9" exponente_b [15:0] $end
$var reg 16 :" mantissa_a [15:0] $end
$var reg 16 ;" mantissa_b [15:0] $end
$var reg 16 <" temp1 [15:0] $end
$var reg 16 =" temp2 [15:0] $end
$var reg 16 >" temp3 [15:0] $end
$var reg 1000 ?" temp4 [999:0] $end
$upscope $end
$scope module fp32 $end
$var wire 1 @" ALUControl $end
$var wire 32 A" exponente [31:0] $end
$var wire 32 B" inicial [31:0] $end
$var wire 32 C" matissa [31:0] $end
$var wire 32 D" b [31:0] $end
$var wire 32 E" a [31:0] $end
$var reg 32 F" Result [31:0] $end
$var reg 32 G" exponente_a [31:0] $end
$var reg 32 H" exponente_b [31:0] $end
$var reg 32 I" mantissa_a [31:0] $end
$var reg 32 J" mantissa_b [31:0] $end
$var reg 32 K" temp1 [31:0] $end
$var reg 32 L" temp2 [31:0] $end
$var reg 32 M" temp3 [31:0] $end
$var reg 1000 N" temp4 [999:0] $end
$upscope $end
$upscope $end
$scope module FPmux $end
$var wire 32 O" d1 [31:0] $end
$var wire 1 . s $end
$var wire 32 P" y [31:0] $end
$var wire 32 Q" d0 [31:0] $end
$upscope $end
$scope module alu $end
$var wire 4 R" ALUControl [3:0] $end
$var wire 1 S" zero $end
$var wire 33 T" sum [32:0] $end
$var wire 1 U" overflow $end
$var wire 1 V" neg $end
$var wire 1 W" carry $end
$var wire 32 X" b [31:0] $end
$var wire 32 Y" a [31:0] $end
$var wire 4 Z" ALUFlags [3:0] $end
$var reg 32 [" Result [31:0] $end
$var reg 32 \" Result2 [31:0] $end
$var reg 64 ]" aux [63:0] $end
$var reg 32 ^" tempA [31:0] $end
$var reg 64 _" tempAUX [63:0] $end
$var reg 32 `" tempB [31:0] $end
$var reg 1 W" tempCARRY $end
$var reg 1 U" tempOVERFLOW $end
$upscope $end
$scope module ext $end
$var wire 2 a" ImmSrc [1:0] $end
$var wire 24 b" Instr [23:0] $end
$var reg 32 c" ExtImm [31:0] $end
$upscope $end
$scope module pcadd1 $end
$var wire 32 d" b [31:0] $end
$var wire 32 e" y [31:0] $end
$var wire 32 f" a [31:0] $end
$upscope $end
$scope module pcadd2 $end
$var wire 32 g" a [31:0] $end
$var wire 32 h" b [31:0] $end
$var wire 32 i" y [31:0] $end
$upscope $end
$scope module pcmux $end
$var wire 32 j" d0 [31:0] $end
$var wire 1 2 s $end
$var wire 32 k" y [31:0] $end
$var wire 32 l" d1 [31:0] $end
$upscope $end
$scope module pcreg $end
$var wire 1 $ clk $end
$var wire 32 m" d [31:0] $end
$var wire 1 % reset $end
$var reg 32 n" q [31:0] $end
$upscope $end
$scope module ra1mux $end
$var wire 4 o" d0 [3:0] $end
$var wire 4 p" d1 [3:0] $end
$var wire 1 q" s $end
$var wire 4 r" y [3:0] $end
$upscope $end
$scope module ra1mux2 $end
$var wire 4 s" d0 [3:0] $end
$var wire 4 t" d1 [3:0] $end
$var wire 1 4 s $end
$var wire 4 u" y [3:0] $end
$upscope $end
$scope module ra2mux $end
$var wire 4 v" d0 [3:0] $end
$var wire 4 w" d1 [3:0] $end
$var wire 1 x" s $end
$var wire 4 y" y [3:0] $end
$upscope $end
$scope module ra2mux2 $end
$var wire 4 z" d0 [3:0] $end
$var wire 4 {" d1 [3:0] $end
$var wire 1 4 s $end
$var wire 4 |" y [3:0] $end
$upscope $end
$scope module ra3mux $end
$var wire 4 }" d0 [3:0] $end
$var wire 4 ~" d1 [3:0] $end
$var wire 1 6 s $end
$var wire 4 !# y [3:0] $end
$upscope $end
$scope module resmux $end
$var wire 32 "# d0 [31:0] $end
$var wire 1 5 s $end
$var wire 32 ## y [31:0] $end
$var wire 32 $# d1 [31:0] $end
$upscope $end
$scope module rf $end
$var wire 4 %# WA4 [3:0] $end
$var wire 32 &# WD4 [31:0] $end
$var wire 1 - WE4 $end
$var wire 1 $ clk $end
$var wire 32 '# r15 [31:0] $end
$var wire 4 (# ra1 [3:0] $end
$var wire 4 )# ra2 [3:0] $end
$var wire 4 *# wa3 [3:0] $end
$var wire 32 +# wd3 [31:0] $end
$var wire 1 / we3 $end
$var wire 32 ,# rd2 [31:0] $end
$var wire 32 -# rd1 [31:0] $end
$upscope $end
$scope module srcbmux $end
$var wire 32 .# d0 [31:0] $end
$var wire 32 /# d1 [31:0] $end
$var wire 1 : s $end
$var wire 32 0# y [31:0] $end
$upscope $end
$upscope $end
$upscope $end
$scope module dmem $end
$var wire 32 1# a [31:0] $end
$var wire 1 $ clk $end
$var wire 32 2# rd [31:0] $end
$var wire 32 3# wd [31:0] $end
$var wire 1 " we $end
$upscope $end
$scope module imem $end
$var wire 32 4# a [31:0] $end
$var wire 32 5# rd [31:0] $end
$upscope $end
$upscope $end
$upscope $end
$enddefinitions $end
#0
$dumpvars
b11100000010011110000000000001111 5#
b0 4#
b1000 3#
bx 2#
b0 1#
b1000 0#
b1111 /#
b1000 .#
b1000 -#
b1000 ,#
b0 +#
b0 *#
b1111 )#
b1111 (#
b1000 '#
bx &#
b1111 %#
bx $#
b0 ##
b0 "#
b0 !#
b1111 ~"
b0 }"
b1111 |"
b1111 {"
b1111 z"
b1111 y"
0x"
b0 w"
b1111 v"
b1111 u"
b0 t"
b1111 s"
b1111 r"
0q"
b1111 p"
b1111 o"
b0 n"
b100 m"
b0 l"
b100 k"
b100 j"
b1000 i"
b100 h"
b100 g"
b0 f"
b100 e"
b100 d"
b1111 c"
b10011110000000000001111 b"
b0 a"
bx `"
bx _"
bx ^"
bx ]"
bx \"
b0 ["
b100 Z"
b1000 Y"
b1000 X"
0W"
0V"
0U"
b0 T"
1S"
b1 R"
b0 Q"
b0 P"
b0x000000000000x0000001000 O"
bx N"
b10 M"
b100000000000000000001000 L"
b100000000000000000000000 K"
b100000000000000000001000 J"
b100000000000000000001000 I"
b0 H"
b0 G"
b100000000000000000001000 F"
b1000 E"
b1000 D"
b11111111111111111111111 C"
b100000000000000000000000 B"
b1111111100000000000000000000000 A"
x@"
bx ?"
b10 >"
b10000001000 ="
b10000000000 <"
b10000001000 ;"
b10000001000 :"
b0 9"
b0 8"
b10000001000 7"
b1111111111 6"
b10000000000 5"
b111110000000000 4"
b1000 3"
b1000 2"
x1"
b100000000000000000001000 0"
b0x000000000000x0000001000 /"
x."
b10000001000 -"
b0x000000000000x0000001000 ,"
b10000001000 +"
b100000000000000000001000 *"
b1000 )"
b1000 ("
b10000001000 '"
bx &"
b100 %"
b0 $"
bx #"
b1111 ""
b0x000000000000x0000001000 !"
b11100000010011110000000000001111 ~
b0 }
b100 |
b100 {
b1000 z
b1111 y
b1111 x
bx w
b0 v
b1000 u
b1000 t
b1000 s
b0 r
b1111 q
b1111 p
b0 o
bx n
b0 m
b0 l
bx k
b1 j
b10010000 i
b0 h
bx g
b1 f
1e
0d
b0 c
b0 b
b0 a
b0 `
b0 _
b0 ^
b100 ]
b100 \
b1111 [
b0 Z
0Y
b1 X
b0 W
0V
b0 U
0T
0S
0R
0Q
1P
b0 O
b1110 N
b100 M
1L
b0 K
b0 J
b0 I
b1110 H
b1 G
b100 F
bx E
b0 D
b0 C
b11100000010011110000000000001111 B
0A
0@
b0 ?
1>
0=
b1 <
b100 ;
0:
bx 9
b0 8
b11100000010011110000000000001111 7
06
05
04
b0 3
02
bx 1
b0 0
1/
0.
0-
b1000 ,
b0 +
b0 *
b11100000010011110000000000001111 )
b0 (
bx '
b1000 &
1%
1$
b0 #
0"
b1000 !
$end
#1
0$
0%
#2
b0 v
b0 l"
b0 ##
b0 +#
b1 o
b1 !#
b1 *#
b10000001100 +"
b10000001100 -"
b10000001100 '"
b10000001100 7"
b10 >"
b10000001100 ="
b10000000000 <"
b10000001100 ;"
b10000001100 :"
b0x000000000000x0000001100 !"
b0x000000000000x0000001100 ,"
b0x000000000000x0000001100 /"
b0x000000000000x0000001100 O"
b1 X
b0 #
b0 *
b0 +
b0 r
b0 P"
b0 "#
b0 1#
b1100 3"
b10011110001000000001111 b"
b1 }"
b1 w"
b1 a
b1100 2"
b100000000000000000001100 *"
b100000000000000000001100 0"
b100000000000000000001100 F"
b10 M"
b100000000000000000001100 L"
b100000000000000000000000 K"
b100000000000000000001100 J"
b100000000000000000001100 I"
b100 ;
b100 F
b100 M
b100 %"
b100 Z"
1S"
b0 $"
b0 Q"
b0 ["
b1100 t
b1100 ("
b1100 D"
b1100 X"
b1100 0#
b11100000010011110001000000001111 )
b11100000010011110001000000001111 7
b11100000010011110001000000001111 B
b11100000010011110001000000001111 ~
b11100000010011110001000000001111 5#
b0 T"
b1100 u
b1100 )"
b1100 E"
b1100 Y"
b1100 -#
b1100 !
b1100 &
b1100 ,
b1100 s
b1100 ,#
b1100 .#
b1100 3#
b1000 |
b1000 k"
b1000 m"
b1100 z
b1100 i"
b1100 '#
b1000 {
b1000 e"
b1000 g"
b1000 j"
b100 (
b100 3
b100 }
b100 f"
b100 n"
b100 4#
1$
#3
0$
#4
b0 v
b0 l"
b0 ##
b0 +#
b10 o
b10 !#
b10 *#
b10000010000 +"
b10000010000 -"
b10000010000 '"
b10000010000 7"
b10 >"
b10000010000 ="
b10000000000 <"
b10000010000 ;"
b10000010000 :"
b0x000000000000x0000010000 !"
b0x000000000000x0000010000 ,"
b0x000000000000x0000010000 /"
b0x000000000000x0000010000 O"
b1 X
b0 #
b0 *
b0 +
b0 r
b0 P"
b0 "#
b0 1#
b10000 3"
b10011110010000000001111 b"
b10 }"
b10 w"
b10 a
b10000 2"
b100000000000000000010000 *"
b100000000000000000010000 0"
b100000000000000000010000 F"
b10 M"
b100000000000000000010000 L"
b100000000000000000000000 K"
b100000000000000000010000 J"
b100000000000000000010000 I"
b100 ;
b100 F
b100 M
b100 %"
b100 Z"
1S"
b0 $"
b0 Q"
b0 ["
b10000 t
b10000 ("
b10000 D"
b10000 X"
b10000 0#
b11100000010011110010000000001111 )
b11100000010011110010000000001111 7
b11100000010011110010000000001111 B
b11100000010011110010000000001111 ~
b11100000010011110010000000001111 5#
b0 T"
b10000 u
b10000 )"
b10000 E"
b10000 Y"
b10000 -#
b10000 !
b10000 &
b10000 ,
b10000 s
b10000 ,#
b10000 .#
b10000 3#
b1100 |
b1100 k"
b1100 m"
b10000 z
b10000 i"
b10000 '#
b1100 {
b1100 e"
b1100 g"
b1100 j"
b1000 (
b1000 3
b1000 }
b1000 f"
b1000 n"
b1000 4#
1$
#5
0$
#6
b0 U
0V"
b10 p
b10 |"
b10 )#
b0 q
b0 u"
b0 (#
0U"
0W"
1:
b110010 v
b110010 l"
b110010 ##
b110010 +#
b110010 ""
b110010 c"
b110010 /#
b0 o
b0 !#
b0 *#
b10 x
b10 y"
b10 z"
b0 y
b0 r"
b0 s"
b0 <
b0 G
b0 f
b0 j
b0 R"
b1010010000 i
b10000011001 +"
b10000011001 -"
b10000011001 '"
b10000011001 7"
b10 >"
b10000011001 ="
b10000000000 <"
b10000110010 ;"
b10000000000 :"
b0x000000000000x0000011001 !"
b0x000000000000x0000011001 ,"
b0x000000000000x0000011001 /"
b0x000000000000x0000011001 O"
b0 X
b110010 #
b110010 *
b110010 +
b110010 r
b110010 P"
b110010 "#
b110010 1#
b110010 3"
b100000000000000000110010 b"
b0 %#
b0 ~"
b0 }"
b10 {"
b0 w"
b10 v"
b0 o"
b11 _
b0 [
b1000 \
b11 ^
b0 a
b101000 ]
b0 2"
b100000000000000000011001 *"
b100000000000000000011001 0"
b100000000000000000011001 F"
b10 M"
b100000000000000000011001 L"
b100000000000000000000000 K"
b100000000000000000110010 J"
b100000000000000000000000 I"
b0 ;
b0 F
b0 M
b0 %"
b0 Z"
0S"
b110010 $"
b110010 Q"
b110010 ["
b110010 t
b110010 ("
b110010 D"
b110010 X"
b110010 0#
b11100010100000000000000000110010 )
b11100010100000000000000000110010 7
b11100010100000000000000000110010 B
b11100010100000000000000000110010 ~
b11100010100000000000000000110010 5#
b110010 T"
b0 u
b0 )"
b0 E"
b0 Y"
b0 -#
b0 !
b0 &
b0 ,
b0 s
b0 ,#
b0 .#
b0 3#
b10000 |
b10000 k"
b10000 m"
b10100 z
b10100 i"
b10100 '#
b10000 {
b10000 e"
b10000 g"
b10000 j"
b1100 (
b1100 3
b1100 }
b1100 f"
b1100 n"
b1100 4#
1$
#7
0$
#8
b1010 3"
bx !
bx &
bx ,
bx s
bx ,#
bx .#
bx 3#
b1010 t
b1010 ("
b1010 D"
b1010 X"
b1010 0#
b1010 p
b1010 |"
b1010 )#
b1 q
b1 u"
b1 (#
b1010 v
b1010 l"
b1010 ##
b1010 +#
b1010 ""
b1010 c"
b1010 /#
b1 o
b1 !#
b1 *#
b1010 x
b1010 y"
b1010 z"
b1 y
b1 r"
b1 s"
b10000000101 +"
b10000000101 -"
b10000000101 '"
b10000000101 7"
b10 >"
b10000000101 ="
b10000000000 <"
b10000001010 ;"
b10000000000 :"
b0x000000000000x0000000101 !"
b0x000000000000x0000000101 ,"
b0x000000000000x0000000101 /"
b0x000000000000x0000000101 O"
b1010 #
b1010 *
b1010 +
b1010 r
b1010 P"
b1010 "#
b1010 1#
b100000010001000000001010 b"
b1 %#
b1 ~"
b1 }"
b1010 {"
b1 w"
b1010 v"
b1 o"
b0 _
b1 [
b0 ^
b1 a
b0 2"
b100000000000000000000101 *"
b100000000000000000000101 0"
b100000000000000000000101 F"
b10 M"
b100000000000000000000101 L"
b100000000000000000000000 K"
b100000000000000000001010 J"
b100000000000000000000000 I"
b1010 $"
b1010 Q"
b1010 ["
b11100010100000010001000000001010 )
b11100010100000010001000000001010 7
b11100010100000010001000000001010 B
b11100010100000010001000000001010 ~
b11100010100000010001000000001010 5#
b10100 |
b10100 k"
b10100 m"
b1010 T"
b0 u
b0 )"
b0 E"
b0 Y"
b0 -#
b11000 z
b11000 i"
b11000 '#
b10100 {
b10100 e"
b10100 g"
b10100 j"
b10000 (
b10000 3
b10000 }
b10000 f"
b10000 n"
b10000 4#
1$
#9
0$
#10
b10 X
b10 U
1V"
b101 3"
b1010 ;
b1010 F
b1010 M
b1010 %"
b1010 Z"
1W"
b101 t
b101 ("
b101 D"
b101 X"
b101 0#
b101 p
b101 |"
b101 )#
b10 q
b10 u"
b10 (#
b11111111111111111111111111111011 v
b11111111111111111111111111111011 l"
b11111111111111111111111111111011 ##
b11111111111111111111111111111011 +#
b101 ""
b101 c"
b101 /#
b10 o
b10 !#
b10 *#
b101 x
b101 y"
b101 z"
b10 y
b10 r"
b10 s"
b1 <
b1 G
b1 f
b1 j
b1 R"
b10000000010 +"
b10000000010 -"
b10000000010 '"
b10000000010 7"
b10 >"
b10000000010 ="
b10000000000 <"
b10000000101 ;"
b10000000000 :"
b0x000000000000x0000000010 !"
b0x000000000000x0000000010 ,"
b0x000000000000x0000000010 /"
b0x000000000000x0000000010 O"
b11111111111111111111111111111011 #
b11111111111111111111111111111011 *
b11111111111111111111111111111011 +
b11111111111111111111111111111011 r
b11111111111111111111111111111011 P"
b11111111111111111111111111111011 "#
b11111111111111111111111111111011 1#
b10000100010000000000101 b"
b10 %#
b10 ~"
b10 }"
b101 {"
b10 w"
b101 v"
b10 o"
b10 [
b100 \
b10 a
b100100 ]
b0 2"
b100000000000000000000010 *"
b100000000000000000000010 0"
b100000000000000000000010 F"
b10 M"
b100000000000000000000010 L"
b100000000000000000000000 K"
b100000000000000000000101 J"
b100000000000000000000000 I"
b11111111111111111111111111111011 $"
b11111111111111111111111111111011 Q"
b11111111111111111111111111111011 ["
b11100010010000100010000000000101 )
b11100010010000100010000000000101 7
b11100010010000100010000000000101 B
b11100010010000100010000000000101 ~
b11100010010000100010000000000101 5#
b11000 |
b11000 k"
b11000 m"
b111111111111111111111111111111011 T"
b0 u
b0 )"
b0 E"
b0 Y"
b0 -#
b11100 z
b11100 i"
b11100 '#
b11000 {
b11000 e"
b11000 g"
b11000 j"
b10100 (
b10100 3
b10100 }
b10100 f"
b10100 n"
b10100 4#
1$
#11
0$
#12
b0 9"
0V"
b0 X
b110010 3"
b0 H"
0S"
b110010 !
b110010 &
b110010 ,
b110010 s
b110010 ,#
b110010 .#
b110010 3#
1-
b110010 t
b110010 ("
b110010 D"
b110010 X"
b110010 0#
b0 p
b0 |"
b0 )#
b1 q
b1 u"
b1 (#
b0 n
b0 &#
b0 #"
b0 \"
b111110100 ]"
0:
1=
14
b111110100 v
b111110100 l"
b111110100 ##
b111110100 +#
b10010000 ""
b10010000 c"
b10010000 /#
b11 o
b11 !#
b11 *#
b0 x
b0 y"
b0 z"
b100 y
b100 r"
b100 s"
b1000 <
b1000 G
b1000 f
b1000 j
b1000 R"
b10011100 i
b10000011110 +"
b10000011110 -"
b10000011110 '"
b10000011110 7"
b10 >"
b10000011110 ="
b10000000000 <"
b10000110010 ;"
b10000001010 :"
b0 8"
b0x000000000000x0000011110 !"
b0x000000000000x0000011110 ,"
b0x000000000000x0000011110 /"
b0x000000000000x0000011110 O"
b0 U
b111110100 #
b111110100 *
b111110100 +
b111110100 r
b111110100 P"
b111110100 "#
b111110100 1#
b100001000011000110010000 b"
b100 %#
b100 ~"
b11 }"
b0 {"
b1 t"
b11 w"
b0 v"
b100 o"
b1001 _
b100 [
b1000 \
b1001 ^
b11 a
b1000 ]
b1010 2"
b100000000000000000011110 *"
b100000000000000000011110 0"
b100000000000000000011110 F"
b10 M"
b100000000000000000011110 L"
b100000000000000000000000 K"
b100000000000000000110010 J"
b100000000000000000001010 I"
b0 G"
b0 ;
b0 F
b0 M
b0 %"
b0 Z"
0W"
b111110100 $"
b111110100 Q"
b111110100 ["
b11100000100001000011000110010000 )
b11100000100001000011000110010000 7
b11100000100001000011000110010000 B
b11100000100001000011000110010000 ~
b11100000100001000011000110010000 5#
b11100 |
b11100 k"
b11100 m"
b111100 T"
b1010 u
b1010 )"
b1010 E"
b1010 Y"
b1010 -#
b100000 z
b100000 i"
b100000 '#
b11100 {
b11100 e"
b11100 g"
b11100 j"
b11000 (
b11000 3
b11000 }
b11000 f"
b11000 n"
b11000 4#
1$
#13
0$
#14
0-
0=
16
b101 o
b101 !#
b101 *#
b101 y
b101 r"
b101 s"
b100 <
b100 G
b100 f
b100 j
b100 R"
b10010110 i
b1010000000110010000 b"
b101 %#
b101 ~"
b0 }"
b0 w"
b101 o"
b101 [
b0 \
b0 a
b0 ]
b11100000000001010000000110010000 )
b11100000000001010000000110010000 7
b11100000000001010000000110010000 B
b11100000000001010000000110010000 ~
b11100000000001010000000110010000 5#
b100000 |
b100000 k"
b100000 m"
b100100 z
b100100 i"
b100100 '#
b100000 {
b100000 e"
b100000 g"
b100000 j"
b11100 (
b11100 3
b11100 }
b11100 f"
b11100 n"
b11100 4#
1$
#15
0$
#16
b10 X
b11111111111111111111111100000110 v
b11111111111111111111111100000110 l"
b11111111111111111111111100000110 ##
b11111111111111111111111100000110 +#
b111111111111011 +"
b111111111111011 -"
b111111111111011 '"
b111111111111011 7"
b1 >"
b111111111111011 ="
b111110000000000 <"
b0 ;"
b11111111011 :"
b11111 8"
b0xxxxxxxxxxxxxxxx111111111111011 !"
b0xxxxxxxxxxxxxxxx111111111111011 ,"
b0xxxxxxxxxxxxxxxx111111111111011 /"
b0xxxxxxxxxxxxxxxx111111111111011 O"
b1000 ;
b1000 F
b1000 M
b1000 %"
b1000 Z"
1V"
b11111111111111111111111100000110 #
b11111111111111111111111100000110 *
b11111111111111111111111100000110 +
b11111111111111111111111100000110 r
b11111111111111111111111100000110 P"
b11111111111111111111111100000110 "#
b11111111111111111111111100000110 1#
b1111111111111011 2"
b1111111111111111111111111111011 *"
b1111111111111111111111111111011 0"
b1111111111111111111111111111011 F"
b1 M"
b1111111111111111111111111111011 L"
b1111111100000000000000000000000 K"
b0 J"
b111111111111111111111011 I"
b11111111 G"
b11111111111111111111111100000110 $"
b11111111111111111111111100000110 Q"
b11111111111111111111111100000110 ["
b11111111111111111111111111111111 n
b11111111111111111111111111111111 &#
b11111111111111111111111111111111 #"
b11111111111111111111111111111111 \"
1-
b100000000000000000000000000101101 T"
b11111111111111111111111111111011 u
b11111111111111111111111111111011 )"
b11111111111111111111111111111011 E"
b11111111111111111111111111111011 Y"
b11111111111111111111111111111011 -#
b1111111111111111111111111111111111111111111111111111111100000110 _"
b110010 `"
b11111111111111111111111111111011 ^"
1=
06
b110 o
b110 !#
b110 *#
b10 q
b10 u"
b10 (#
b111 y
b111 r"
b111 s"
b1100 <
b1100 G
b1100 f
b1100 j
b1100 R"
b10011100 i
b110001110110001010010000 b"
b111 %#
b111 ~"
b110 }"
b10 t"
b110 w"
b111 o"
b111 [
b1100 \
b110 a
b1100 ]
b11100000110001110110001010010000 )
b11100000110001110110001010010000 7
b11100000110001110110001010010000 B
b11100000110001110110001010010000 ~
b11100000110001110110001010010000 5#
b100100 |
b100100 k"
b100100 m"
b101000 z
b101000 i"
b101000 '#
b100100 {
b100100 e"
b100100 g"
b100100 j"
b100000 (
b100000 3
b100000 }
b100000 f"
b100000 n"
b100000 4#
1$
#17
0$
